{
  "name": "Talim",
  "full_name": "Talim",
  "jp_name": "タリム",
  "version": "2.02",
  "attack_list": [
    {
      "attack_command": "A",
      "attack_name": "",
      "jp_name": "ボルティベイン(1)",
      "property": "H",
      "damage": "8",
      "startup": "12F",
      "block": "-8",
      "hit": "+2",
      "counter_hit": "+2",
      "chip_damage": "",
      "guard_break": "",
      "notes": "Ends i41, GC: 1%, KNB: Weak Gでキャンセル可",
      "index": ""
    },
    {
      "attack_command": "A.A",
      "attack_name": "",
      "jp_name": "ボルティベイン(2)",
      "property": "H, H",
      "damage": "8,10",
      "startup": "",
      "block": "-8",
      "hit": "+2",
      "counter_hit": "+2",
      "chip_damage": "",
      "guard_break": "",
      "notes": "Ends i(31), GC: 3%, KNB: Weak, NC",
      "index": ""
    },
    {
      "attack_command": "A.A.A",
      "attack_name": "",
      "jp_name": "ボルティベイン～背向け",
      "property": "H, H HH(Special)",
      "damage": "8,10,10,10",
      "startup": "",
      "block": "-4",
      "hit": "+10b",
      "counter_hit": "+10b",
      "chip_damage": "",
      "guard_break": "",
      "notes": "Ends i(28), GC: 6%, KNB: Weak,Weak ヒットで背面取り, Second two hits NCC, Delayable 16F カウンター確認猶予14F (Ver.1.50)近距離で空振りする状況を緩和するため、ヒットサイズや追尾性能を調整。",
      "index": ""
    },
    {
      "attack_command": "A.A+B",
      "attack_name": "",
      "jp_name": "ボルカディ(3)",
      "property": "H, H, M",
      "damage": "8,10,14",
      "startup": "",
      "block": "-16",
      "hit": "-4",
      "counter_hit": "-4",
      "chip_damage": "",
      "guard_break": "",
      "notes": "Ends i(33), GC: 5%, KNB: Weak, Second two hits NCC, Delayable 16F カウンター確認猶予16F 旧アップデート (Ver.1.10)特殊な入力で, First two hits NCCしていたのを修正",
      "index": ""
    },
    {
      "attack_command": "A.A+B.A",
      "attack_name": "",
      "jp_name": "ボルカディ",
      "property": "H, H, M, H",
      "damage": "8,10,14,16",
      "startup": "",
      "block": "-4",
      "hit": "0",
      "counter_hit": "+6",
      "chip_damage": "",
      "guard_break": "",
      "notes": "Ends i(35), GC: 6%, KNB: Weak, Third two hits NC",
      "index": ""
    },
    {
      "attack_command": "A.A+B.A.28",
      "attack_name": "",
      "jp_name": "ボルカディ～AT",
      "property": "H, H, M, H(Special)",
      "damage": "8,10,14,16",
      "startup": "",
      "block": "+4",
      "hit": "+8",
      "counter_hit": "+14",
      "chip_damage": "",
      "guard_break": "",
      "notes": "Third two hits NC",
      "index": ""
    },
    {
      "attack_command": "A.A+B.A.6",
      "attack_name": "",
      "jp_name": "ボルカディ～AS",
      "property": "H, H, M, H(Special)",
      "damage": "8,10,14,16",
      "startup": "",
      "block": "+4",
      "hit": "+8",
      "counter_hit": "+14",
      "chip_damage": "",
      "guard_break": "",
      "notes": "JS: , Third two hits NC",
      "index": ""
    },
    {
      "attack_command": "A.A+B.A.4",
      "attack_name": "",
      "jp_name": "ボルカディ～LAR",
      "property": "H, H, M, H(Special)",
      "damage": "8,10,14,16",
      "startup": "",
      "block": "-10",
      "hit": "-6",
      "counter_hit": "0",
      "chip_damage": "",
      "guard_break": "",
      "notes": "JS: , Third two hits NC",
      "index": ""
    },
    {
      "attack_command": "A.A+B.B",
      "attack_name": "",
      "jp_name": "ボルカ・パグ",
      "property": "H, H, M, M",
      "damage": "8,10,14,26",
      "startup": "",
      "block": "-16",
      "hit": "+2",
      "counter_hit": "+6s",
      "chip_damage": "",
      "guard_break": "",
      "notes": "Ends i(39), GC: 10% KNB: 中, Third two hits NC",
      "index": ""
    },
    {
      "attack_command": "A.A+B.[B]",
      "attack_name": "",
      "jp_name": "ボルカ・パグ～AR",
      "property": "H, H, M, M(Special)",
      "damage": "8,10,14,26",
      "startup": "",
      "block": "-8",
      "hit": "+10",
      "counter_hit": "+14s",
      "chip_damage": "",
      "guard_break": "",
      "notes": "Third two hits NC",
      "index": ""
    },
    {
      "attack_command": "SC A.A+B.B",
      "attack_name": "",
      "jp_name": "ボルカ・エル・パグ",
      "property": "H, H, M, M",
      "damage": "8,11,15,33",
      "startup": "",
      "block": "+2",
      "hit": "LNC",
      "counter_hit": "LNC",
      "chip_damage": "",
      "guard_break": "",
      "notes": "SC, BA, GC: 15%, Third two hits NC",
      "index": ""
    },
    {
      "attack_command": "SC A.A+B.[B]",
      "attack_name": "",
      "jp_name": "ボルカ・エル・パグ～AR",
      "property": "H, H, M, M(Special)",
      "damage": "8,11,15,33",
      "startup": "",
      "block": "+10",
      "hit": "LNC",
      "counter_hit": "LNC",
      "chip_damage": "",
      "guard_break": "",
      "notes": "SC, BA, Third two hits NC",
      "index": ""
    },
    {
      "attack_command": "A.A.A+B",
      "attack_name": "",
      "jp_name": "ボルティファス",
      "property": "H, H, Sm, H",
      "damage": "8,10,15,20",
      "startup": "",
      "block": "-16s",
      "hit": "KND",
      "counter_hit": "KND",
      "chip_damage": "",
      "guard_break": "",
      "notes": "Ends i(36), JS: , GC: 10%, KNB: Weak,中 ヒットで相手を背面方向へ, First two hits NCC, Second two hits NCC 1段目からのカウンター確認猶予11F 旧アップデート (Ver.1.10), Damage ()8,10,15,20→8,10,20,20 (Ver.1.11)バトル中、リングアウトで自滅しなくなった。",
      "index": ""
    },
    {
      "attack_command": "A:6",
      "attack_name": "",
      "jp_name": "チットウィックル",
      "property": "HH",
      "damage": "10,12",
      "startup": "18F",
      "block": "-2",
      "hit": "+6",
      "counter_hit": "+6",
      "chip_damage": "",
      "guard_break": "",
      "notes": "Ends i(24), JS: 16F, GC: 3%, KNB: Weak,Weak iの値はコマンド開始から ディレイ時のiはコマンド完了から15F 連続ガード",
      "index": ""
    },
    {
      "attack_command": "6A",
      "attack_name": "",
      "jp_name": "パンジィーゼ(1)",
      "property": "H",
      "damage": "18",
      "startup": "18F",
      "block": "-16",
      "hit": "-4",
      "counter_hit": "-4",
      "chip_damage": "",
      "guard_break": "",
      "notes": "Ends i56, GC: 1%, KNB: Weak 旧アップデート (Ver.1.10)ガードバック減少",
      "index": ""
    },
    {
      "attack_command": "6A.A",
      "attack_name": "",
      "jp_name": "パンジィーゼ",
      "property": "H, H",
      "damage": "18,24",
      "startup": "",
      "block": "-2",
      "hit": "KND",
      "counter_hit": "KND",
      "chip_damage": "",
      "guard_break": "",
      "notes": "Ends i(33), GC: 3%, KNB: 中, First two hits NCC",
      "index": ""
    },
    {
      "attack_command": "6A.A.28",
      "attack_name": "",
      "jp_name": "パンジィーゼ～AT",
      "property": "H, H(Special)",
      "damage": "18,24",
      "startup": "",
      "block": "+4",
      "hit": "KND",
      "counter_hit": "KND",
      "chip_damage": "",
      "guard_break": "",
      "notes": "First two hits NCC",
      "index": ""
    },
    {
      "attack_command": "6A.A.6",
      "attack_name": "",
      "jp_name": "パンジィーゼ～AS",
      "property": "H, H(Special)",
      "damage": "18,24",
      "startup": "",
      "block": "+4",
      "hit": "KND",
      "counter_hit": "KND",
      "chip_damage": "",
      "guard_break": "",
      "notes": "JS: , First two hits NCC",
      "index": ""
    },
    {
      "attack_command": "6A.A.4",
      "attack_name": "",
      "jp_name": "パンジィーゼ～LAR",
      "property": "H, H(Special)",
      "damage": "18,24",
      "startup": "",
      "block": "-10",
      "hit": "KND",
      "counter_hit": "KND",
      "chip_damage": "",
      "guard_break": "",
      "notes": "JS:",
      "index": ""
    },
    {
      "attack_command": "6A+B",
      "attack_name": "",
      "jp_name": "パンドラグ",
      "property": "H, M",
      "damage": "18,40",
      "startup": "",
      "block": "+2",
      "hit": "KND",
      "counter_hit": "KND",
      "chip_damage": "",
      "guard_break": "",
      "notes": "Ends i(31), JS: , CS: , GC: 14% KNB: 強 1段目ガードからi18F以内で割り込み可",
      "index": ""
    },
    {
      "attack_command": "6A+K",
      "attack_name": "",
      "jp_name": "パトゥーシュ",
      "property": "H, M",
      "damage": "18,20",
      "startup": "",
      "block": "-12",
      "hit": "STN",
      "counter_hit": "KND",
      "chip_damage": "",
      "guard_break": "",
      "notes": "Ends i(32), GC: 3%, KNB: Weak, NC, Delayable 22F Hit confirm delayable 12F 旧アップデート (Ver.1.10)Block: -14F→-12F ノーマルヒット0F→スタン コンボ補正",
      "index": ""
    },
    {
      "attack_command": "3A",
      "attack_name": "",
      "jp_name": "イーディンップルップ～背向け",
      "property": "M*4(Special)",
      "damage": "6,5,4,4",
      "startup": "22F",
      "block": "+2",
      "hit": "STN",
      "counter_hit": "STN",
      "chip_damage": "",
      "guard_break": "",
      "notes": "Ends i(27), CS: 19F, GC: 5%, KNB: Weak*3,中 旧アップデート (Ver.1.10)Block: -2F→+2F",
      "index": ""
    },
    {
      "attack_command": "2A",
      "attack_name": "",
      "jp_name": "サフォール",
      "property": "Sl",
      "damage": "10",
      "startup": "12F",
      "block": "-6",
      "hit": "+6",
      "counter_hit": "+6",
      "chip_damage": "",
      "guard_break": "",
      "notes": "Ends i42, CS: , GC: 1%, KNB: Weak Ends FC",
      "index": ""
    },
    {
      "attack_command": "1A",
      "attack_name": "",
      "jp_name": "ノーマメイグル",
      "property": "L",
      "damage": "25",
      "startup": "30F",
      "block": "-10",
      "hit": "+4",
      "counter_hit": "+4",
      "chip_damage": "",
      "guard_break": "",
      "notes": "Ends i63, CS: , GC: 4%, KNB: 中 Ends FC (Ver.1.50)近距離で空振りする状況を緩和するため、ヒットサイズや追尾性能を調整。",
      "index": ""
    },
    {
      "attack_command": "4A",
      "attack_name": "",
      "jp_name": "ヤークバンタ(1)",
      "property": "H",
      "damage": "14",
      "startup": "16F",
      "block": "-8",
      "hit": "0",
      "counter_hit": "0",
      "chip_damage": "",
      "guard_break": "",
      "notes": "Ends i45, GC: 1%, KNB: Weak",
      "index": ""
    },
    {
      "attack_command": "4A+K",
      "attack_name": "",
      "jp_name": "ヤークバンタ",
      "property": "H, M",
      "damage": "14,16",
      "startup": "",
      "block": "-4",
      "hit": "+4",
      "counter_hit": "+12",
      "chip_damage": "",
      "guard_break": "",
      "notes": "Ends i(25), GC: 3%, KNB: Weak, NC",
      "index": ""
    },
    {
      "attack_command": "B",
      "attack_name": "",
      "jp_name": "ウォリッツ・ピキッド(1)",
      "property": "M",
      "damage": "10",
      "startup": "14F",
      "block": "-8",
      "hit": "0",
      "counter_hit": "0",
      "chip_damage": "",
      "guard_break": "",
      "notes": "Ends i43, GC: 2%, KNB: Weak Gでキャンセル可",
      "index": ""
    },
    {
      "attack_command": "B.B",
      "attack_name": "",
      "jp_name": "ウォリッツ・ピキッド(2)",
      "property": "M, M",
      "damage": "10,14",
      "startup": "",
      "block": "-8",
      "hit": "+2",
      "counter_hit": "+2",
      "chip_damage": "",
      "guard_break": "",
      "notes": "Ends i(31), GC: 4%, KNB: Weak, NC モーション中Gで3段目の先行入力を取り消せる。 旧アップデート (Ver.1.30)3段目の入力予約を消せるようにした。 (Ver.1.40)近距離の空振り緩和でヒットサイズや追尾性能を調整。",
      "index": ""
    },
    {
      "attack_command": "B.B.B",
      "attack_name": "",
      "jp_name": "ウォリッツ・ピキッド",
      "property": "M, M(RE)",
      "damage": "10,14,30",
      "startup": "",
      "block": "-12",
      "hit": "RE",
      "counter_hit": "RE",
      "chip_damage": "",
      "guard_break": "",
      "notes": "Ends i(33), CS: , GC: 21%, KNB: Weak",
      "index": ""
    },
    {
      "attack_command": "B.B.[B]",
      "attack_name": "",
      "jp_name": "ウォリッツ・ピキッド（ホールド）",
      "property": "M, M(RE)",
      "damage": "10,14,40",
      "startup": "",
      "block": "RE",
      "hit": "RE",
      "counter_hit": "RE",
      "chip_damage": "",
      "guard_break": "",
      "notes": "BA, Ends i(33), CS: , GC: 25%,",
      "index": ""
    },
    {
      "attack_command": "B.B.B.28",
      "attack_name": "",
      "jp_name": "ウォリッツ・ピキッド（キャンセル）～AT",
      "property": "M, M(Special)",
      "damage": "10,14",
      "startup": "",
      "block": "-37",
      "hit": "-27",
      "counter_hit": "-27",
      "chip_damage": "",
      "guard_break": "",
      "notes": "2段目ガードからi16Fの反撃までREで弾く",
      "index": ""
    },
    {
      "attack_command": "B.B.B.6",
      "attack_name": "",
      "jp_name": "ウォリッツ・ピキッド（キャンセル）～AS",
      "property": "M, M(Special)",
      "damage": "10,14",
      "startup": "",
      "block": "-37",
      "hit": "-27",
      "counter_hit": "-27",
      "chip_damage": "",
      "guard_break": "",
      "notes": "JS: 2段目ガードからi16Fの反撃までREで弾く",
      "index": ""
    },
    {
      "attack_command": "B.B.B.4",
      "attack_name": "",
      "jp_name": "ウォリッツ・ピキッド（キャンセル）～LAR",
      "property": "M, M(Special)",
      "damage": "10,14",
      "startup": "",
      "block": "-51",
      "hit": "-41",
      "counter_hit": "-41",
      "chip_damage": "",
      "guard_break": "",
      "notes": "JS: 2段目ガードからi16Fの反撃までREで弾く",
      "index": ""
    },
    {
      "attack_command": "B+K",
      "attack_name": "",
      "jp_name": "ウォリッツ・クロン",
      "property": "M, H",
      "damage": "10,20",
      "startup": "",
      "block": "-6",
      "hit": "+4",
      "counter_hit": "+4",
      "chip_damage": "",
      "guard_break": "",
      "notes": "Ends i(25), JS: , GC: 4%, KNB: Weak, NC",
      "index": ""
    },
    {
      "attack_command": "SC B+K.A",
      "attack_name": "",
      "jp_name": "ウォリッツ・ルカ・ヤークウィン",
      "property": "M, H, L*3",
      "damage": "11,22,8,8,19",
      "startup": "",
      "block": "-16",
      "hit": "KND",
      "counter_hit": "KND",
      "chip_damage": "",
      "guard_break": "",
      "notes": "SC, Ends i(39), JS: , CS: , GC: 9%, KNB: Weak,Weak,中, NC (Ver.1.50)近距離で空振りする状況を緩和するため、ヒットサイズや追尾性能を調整。",
      "index": ""
    },
    {
      "attack_command": "6B",
      "attack_name": "",
      "jp_name": "サイクェンメルチェ(1)",
      "property": "M",
      "damage": "20",
      "startup": "18F",
      "block": "-14",
      "hit": "-4",
      "counter_hit": "+2s",
      "chip_damage": "",
      "guard_break": "",
      "notes": "Ends i56, GC: 2%, KNB: Weak 旧アップデート (Ver.1.11), Damage ()増（16→20）。 ダウンに当たりやすいようにヒットサイズ調整。",
      "index": ""
    },
    {
      "attack_command": "6B.B",
      "attack_name": "",
      "jp_name": "サイクェンメルチェ",
      "property": "M, M",
      "damage": "20,20",
      "startup": "",
      "block": "-16",
      "hit": "+10g",
      "counter_hit": "STN",
      "chip_damage": "",
      "guard_break": "",
      "notes": "Ends i(43), GC: 9% KNB: 中, NC 旧アップデート (Ver.1.10)ノーマルヒットで連続ヒットするように変更 Block: -20F→-16F ヒットバック減少 コンボ補正を追加 (Ver.1.11)2段目ノーマルヒットで相手硬直増（0F→+10gF）、ヒットバック増、相手立ちガード可能な硬直。 ※AS中A+Bがコンボでつながってしまったため修正。",
      "index": ""
    },
    {
      "attack_command": "6B.B.28",
      "attack_name": "",
      "jp_name": "サイクェンメルチェ～AT",
      "property": "M, M(Special)",
      "damage": "20,20",
      "startup": "",
      "block": "-10",
      "hit": "+16g",
      "counter_hit": "STN",
      "chip_damage": "",
      "guard_break": "",
      "notes": "First two hits NCC On block,i25Fまでガード不可 旧アップデート (Ver.1.10)Block: -14F→-10F (Ver.1.11)ヒット+6F→+16gF",
      "index": ""
    },
    {
      "attack_command": "6B.B.6",
      "attack_name": "",
      "jp_name": "サイクェンメルチェ～AS",
      "property": "M, M(Special)",
      "damage": "20,20",
      "startup": "",
      "block": "-10",
      "hit": "+16g",
      "counter_hit": "STN",
      "chip_damage": "",
      "guard_break": "",
      "notes": "JS: , First two hits NCC 旧アップデート (Ver.1.10)Block: -14F→-10F (Ver.1.11)ヒット+6F→+16gF",
      "index": ""
    },
    {
      "attack_command": "6B.B.4",
      "attack_name": "",
      "jp_name": "サイクェンメルチェ～LAR",
      "property": "M, M(Special)",
      "damage": "20,20",
      "startup": "",
      "block": "-24",
      "hit": "+2",
      "counter_hit": "STN",
      "chip_damage": "",
      "guard_break": "",
      "notes": "JS: , First two hits NCC 旧アップデート (Ver.1.10)Block: -28F→-24F (Ver.1.11)ヒット-8F→+2F",
      "index": ""
    },
    {
      "attack_command": "6B.[B]",
      "attack_name": "",
      "jp_name": "サイクェンメルチェ（ホールド）",
      "property": "M, M",
      "damage": "20,30",
      "startup": "",
      "block": "+2",
      "hit": "STN",
      "counter_hit": "STN",
      "chip_damage": "",
      "guard_break": "",
      "notes": "BA, Ends i(39), GC: 15%",
      "index": ""
    },
    {
      "attack_command": "6B.[B].28",
      "attack_name": "",
      "jp_name": "サイクェンメルチェ（ホールド）～AT",
      "property": "M, M(Special)",
      "damage": "20,30",
      "startup": "",
      "block": "+4",
      "hit": "STN",
      "counter_hit": "STN",
      "chip_damage": "",
      "guard_break": "",
      "notes": "",
      "index": ""
    },
    {
      "attack_command": "6B.[B].6",
      "attack_name": "",
      "jp_name": "サイクェンメルチェ（ホールド）～AS",
      "property": "M, M(Special)",
      "damage": "20,30",
      "startup": "",
      "block": "+4",
      "hit": "STN",
      "counter_hit": "STN",
      "chip_damage": "",
      "guard_break": "",
      "notes": "JS:",
      "index": ""
    },
    {
      "attack_command": "6B.[B].4",
      "attack_name": "",
      "jp_name": "サイクェンメルチェ（ホールド）～LAR",
      "property": "M, M(Special)",
      "damage": "20,30",
      "startup": "",
      "block": "-10",
      "hit": "STN",
      "counter_hit": "STN",
      "chip_damage": "",
      "guard_break": "",
      "notes": "JS:",
      "index": ""
    },
    {
      "attack_command": "3B",
      "attack_name": "",
      "jp_name": "キィトリオディア",
      "property": "M*3",
      "damage": "22,4,4",
      "startup": "20F",
      "block": "-12",
      "hit": "LNC",
      "counter_hit": "LNC",
      "chip_damage": "",
      "guard_break": "",
      "notes": "Ends i(38), CS: 8-15F, GC: 11%, KNB: 中,Weak,Weak 旧アップデート (Ver.1.10)ダウン状態の相手に空振りすることがあったのを修正",
      "index": ""
    },
    {
      "attack_command": "2B",
      "attack_name": "",
      "jp_name": "ビッツパゥディー～背向け",
      "property": "M(Special)",
      "damage": "22",
      "startup": "16F",
      "block": "-2",
      "hit": "+12",
      "counter_hit": "+12",
      "chip_damage": "",
      "guard_break": "",
      "notes": "Ends i47, GC: 2%, KNB: Weak",
      "index": ""
    },
    {
      "attack_command": "1B",
      "attack_name": "",
      "jp_name": "クルースコット",
      "property": "LL",
      "damage": "8,8",
      "startup": "20F",
      "block": "-12",
      "hit": "0",
      "counter_hit": "+6s",
      "chip_damage": "",
      "guard_break": "",
      "notes": "Ends i(31), CS: 16F, GC: 4%, KNB: Weak*2 Ends FC 1段目カウンターで2段目もカウンター扱い (Ver.1.40)ガード時の相手硬直を2F増やした（Block: -14F→-12F）。",
      "index": ""
    },
    {
      "attack_command": "4B",
      "attack_name": "",
      "jp_name": "アープ・カインツ(1)",
      "property": "M",
      "damage": "12",
      "startup": "14F",
      "block": "-16",
      "hit": "0",
      "counter_hit": "STN",
      "chip_damage": "",
      "guard_break": "",
      "notes": "Ends i49, CS: 6-12F, GC: 2%, KNB: Weak カウンターでスタン、i14Fまで地上ヒット 旧アップデート (Ver.1.10)先端ヒット時に2段目が空振りしやすかった対策で、やられ挙動を変更",
      "index": ""
    },
    {
      "attack_command": "4B.A",
      "attack_name": "",
      "jp_name": "アープ・カインツ～背向け",
      "property": "M, H(Special)",
      "damage": "12,16",
      "startup": "",
      "block": "-4",
      "hit": "+10b",
      "counter_hit": "+10b",
      "chip_damage": "",
      "guard_break": "",
      "notes": "Ends i(33), GC: 4%, KNB: Weak Gでキャンセル～背向け ヒットで背面取り, NC, Delayable 21F Hit confirm delayable 11F しゃがみステータス6F以内で割り込み可",
      "index": ""
    },
    {
      "attack_command": "4B.[A]",
      "attack_name": "",
      "jp_name": "アープ・カインツ（ホールド）～背向け",
      "property": "M, H(Special)",
      "damage": "12,20",
      "startup": "",
      "block": "-4",
      "hit": "+10b",
      "counter_hit": "STN",
      "chip_damage": "",
      "guard_break": "",
      "notes": "Ends i(33), GC: 4%, KNB: 中 Gでキャンセル～背向け ノーマルヒットで背面取り リリースタイミングが早ければ, NC カウンターでスタン、i18Fまで地上ヒット 空中ヒットで叩きつけ",
      "index": ""
    },
    {
      "attack_command": "4B.[A]",
      "attack_name": "",
      "jp_name": "アープ・カインツ（ホールド最大）～背向け",
      "property": "M, H(Special)",
      "damage": "12,28",
      "startup": "",
      "block": "-2",
      "hit": "STN",
      "counter_hit": "STN",
      "chip_damage": "",
      "guard_break": "",
      "notes": "Ends i(31), GC: 9% KNB: 強 Gでキャンセル～背向け カウンターでスタン、i20Fまで地上ヒット 空中ヒットで叩きつけ",
      "index": ""
    },
    {
      "attack_command": "4B.B",
      "attack_name": "",
      "jp_name": "アープ・キャスティック",
      "property": "M, M",
      "damage": "12,26",
      "startup": "",
      "block": "-4s",
      "hit": "+10s",
      "counter_hit": "+10s",
      "chip_damage": "",
      "guard_break": "",
      "notes": "Ends i(27), GC: 9% KNB: 中 1段目ガードからi16F以内で割り込み可 ガード or ヒットで強制しゃがみ",
      "index": ""
    },
    {
      "attack_command": "236B",
      "attack_name": "",
      "jp_name": "シェイル・クー",
      "property": "M",
      "damage": "22(,8)",
      "startup": "24F",
      "block": "-18",
      "hit": "LNC",
      "counter_hit": "LNC",
      "chip_damage": "",
      "guard_break": "",
      "notes": "Ends i65, JS: 22F, CS: 6-18F, GC: 9% KNB: 中, Damage ()()内は落下, Damage () しゃがみから出した場合、, Damage ()18,(7)＆コンボ補正が立ちより軽い",
      "index": ""
    },
    {
      "attack_command": "236[B]",
      "attack_name": "",
      "jp_name": "シェイル・クー（ホールド）",
      "property": "M",
      "damage": "27(,9)",
      "startup": "45F",
      "block": "-6",
      "hit": "LNC",
      "counter_hit": "LNC",
      "chip_damage": "",
      "guard_break": "",
      "notes": "JS: , CS: , GC: 15% KNB: 強 LHGI空振りにヒット, Damage ()()内は落下, Damage ()",
      "index": ""
    },
    {
      "attack_command": "214B",
      "attack_name": "",
      "jp_name": "バッツ・リーティー",
      "property": "M!",
      "damage": "50",
      "startup": "62F",
      "block": "STN",
      "hit": "STN",
      "counter_hit": "STN",
      "chip_damage": "",
      "guard_break": "",
      "notes": "UA, 旧アップデート (Ver.1.11)バトル中、リングアウトで自滅しなくなった。",
      "index": ""
    },
    {
      "attack_command": "214B:G",
      "attack_name": "",
      "jp_name": "バッツ・リーティー（キャンセル）～AS",
      "property": "(Special)",
      "damage": "-",
      "startup": "",
      "block": "",
      "hit": "",
      "counter_hit": "",
      "chip_damage": "",
      "guard_break": "",
      "notes": "",
      "index": ""
    },
    {
      "attack_command": "K",
      "attack_name": "",
      "jp_name": "フィレイキック",
      "property": "H",
      "damage": "12",
      "startup": "12F",
      "block": "-8",
      "hit": "0",
      "counter_hit": "0",
      "chip_damage": "",
      "guard_break": "",
      "notes": "Ends i41, GC: 1%, KNB: Weak Gでキャンセル可",
      "index": ""
    },
    {
      "attack_command": "6K",
      "attack_name": "",
      "jp_name": "ワインディードキック",
      "property": "M",
      "damage": "20",
      "startup": "16F",
      "block": "-14",
      "hit": "+8",
      "counter_hit": "+8",
      "chip_damage": "",
      "guard_break": "",
      "notes": "Ends i51, CS: 8-13F, GC: 2%, KNB: Weak",
      "index": ""
    },
    {
      "attack_command": "3K",
      "attack_name": "",
      "jp_name": "アーシュノットキック",
      "property": "M",
      "damage": "16",
      "startup": "14F",
      "block": "-6",
      "hit": "+4",
      "counter_hit": "+4",
      "chip_damage": "",
      "guard_break": "",
      "notes": "Ends i41, GC: 1%, KNB: Weak",
      "index": ""
    },
    {
      "attack_command": "2K",
      "attack_name": "",
      "jp_name": "ジーナラックキック",
      "property": "L",
      "damage": "12",
      "startup": "16F",
      "block": "-14",
      "hit": "-4",
      "counter_hit": "-4",
      "chip_damage": "",
      "guard_break": "",
      "notes": "Ends i46, CS: 11F, GC: 1%, KNB: Weak Ends FC (Ver.1.50)近距離で空振りする状況を緩和するため、ヒットサイズや追尾性能を調整。",
      "index": ""
    },
    {
      "attack_command": "1K",
      "attack_name": "",
      "jp_name": "サイフォンキック",
      "property": "L",
      "damage": "16",
      "startup": "18F",
      "block": "-14",
      "hit": "0",
      "counter_hit": "0",
      "chip_damage": "",
      "guard_break": "",
      "notes": "Ends i51, GC: 1%, KNB: Weak",
      "index": ""
    },
    {
      "attack_command": "4K",
      "attack_name": "",
      "jp_name": "シンカディキック",
      "property": "H",
      "damage": "14",
      "startup": "16F",
      "block": "-2",
      "hit": "+8",
      "counter_hit": "+8",
      "chip_damage": "",
      "guard_break": "",
      "notes": "Ends i39, GC: 1%, KNB: Weak",
      "index": ""
    },
    {
      "attack_command": "A+B",
      "attack_name": "",
      "jp_name": "ケイティック・パティ",
      "property": "M",
      "damage": "35",
      "startup": "40F",
      "block": "+2",
      "hit": "KND",
      "counter_hit": "KND",
      "chip_damage": "",
      "guard_break": "",
      "notes": "BA, Ends i81, CS: 8F, GC: 15% LHインパクトカウンター",
      "index": ""
    },
    {
      "attack_command": "A+B:G",
      "attack_name": "",
      "jp_name": "ケイティック・パティ（キャンセル）～背向け",
      "property": "(Special)",
      "damage": "-",
      "startup": "",
      "block": "",
      "hit": "",
      "counter_hit": "",
      "chip_damage": "",
      "guard_break": "",
      "notes": "Ends i49",
      "index": ""
    },
    {
      "attack_command": "6A+B",
      "attack_name": "",
      "jp_name": "クタムチャーク",
      "property": "M",
      "damage": "36",
      "startup": "24F",
      "block": "-12",
      "hit": "STN",
      "counter_hit": "STN",
      "chip_damage": "",
      "guard_break": "",
      "notes": "Ends i61, GC: 12% KNB: 中 Gでキャンセル可",
      "index": ""
    },
    {
      "attack_command": "6[A+B]",
      "attack_name": "",
      "jp_name": "クタムチャーク（ホールド）",
      "property": "M",
      "damage": "36",
      "startup": "33F",
      "block": "-6",
      "hit": "STN",
      "counter_hit": "STN",
      "chip_damage": "",
      "guard_break": "",
      "notes": "Ends i(35), GC: 12% KNB: 中 LH相手攻撃の空振りにヒット Gでキャンセル可 旧アップデート (Ver.1.10)コンボに補正",
      "index": ""
    },
    {
      "attack_command": "3A+B",
      "attack_name": "",
      "jp_name": "パイロプティル",
      "property": "HH",
      "damage": "12,16",
      "startup": "20F",
      "block": "-10",
      "hit": "+4b",
      "counter_hit": "+4b",
      "chip_damage": "",
      "guard_break": "",
      "notes": "Ends i(37), GC: 2%, KNB: Weak,Weak LH1段目空振り、2段目ヒット ヒットで背面取り (Ver.1.50)近距離で空振りする状況を緩和するため、ヒットサイズや追尾性能を調整。",
      "index": ""
    },
    {
      "attack_command": "2A+B",
      "attack_name": "",
      "jp_name": "ティングレイ・パグ",
      "property": "M",
      "damage": "26",
      "startup": "20F",
      "block": "-16",
      "hit": "+2",
      "counter_hit": "+6s",
      "chip_damage": "",
      "guard_break": "",
      "notes": "Ends i59, CS: 20-37F, GC: 9% KNB: 中",
      "index": ""
    },
    {
      "attack_command": "2[A+B]",
      "attack_name": "",
      "jp_name": "ティングレイ・パグ～AR",
      "property": "M(Special)",
      "damage": "26",
      "startup": "20F",
      "block": "-10",
      "hit": "+8",
      "counter_hit": "+12s",
      "chip_damage": "",
      "guard_break": "",
      "notes": "",
      "index": ""
    },
    {
      "attack_command": "1A+B",
      "attack_name": "",
      "jp_name": "ケットペイル",
      "property": "M",
      "damage": "24",
      "startup": "18F",
      "block": "-12",
      "hit": "KND",
      "counter_hit": "LNC",
      "chip_damage": "",
      "guard_break": "",
      "notes": "Ends i55, CS: 6-19F, GC: 9% KNB: 中 LHガード耐久値が少なくなった相手にヒット 旧アップデート (Ver.1.10)Block: -16F→-12F",
      "index": ""
    },
    {
      "attack_command": "4A+B",
      "attack_name": "",
      "jp_name": "タンベル・ティオ～背向け",
      "property": "MM(Special)",
      "damage": "16,20",
      "startup": "20F",
      "block": "-6s",
      "hit": "+6",
      "counter_hit": "+6",
      "chip_damage": "",
      "guard_break": "",
      "notes": "Ends i(29), GC: 4%, KNB: Weak*2 ガードで強制しゃがみ",
      "index": ""
    },
    {
      "attack_command": "K+G",
      "attack_name": "",
      "jp_name": "アピール",
      "property": "(Special)",
      "damage": "-",
      "startup": "",
      "block": "",
      "hit": "",
      "counter_hit": "",
      "chip_damage": "",
      "guard_break": "",
      "notes": "",
      "index": ""
    },
    {
      "attack_command": "A+B+K",
      "attack_name": "",
      "jp_name": "デュミンガック・ナガ・ル・ウノス",
      "property": "MMM(TA)",
      "damage": "20,10,20(,50)",
      "startup": "20F",
      "block": "+4",
      "hit": "Throw",
      "counter_hit": "Throw",
      "chip_damage": "",
      "guard_break": "",
      "notes": "CE, Ends i95, JS: 4F, GC: 23% KNB: 強,強,強 1ゲージを消費してクリティカルエッジを発動 i19Fからi保証 1～3段までのどれでもガードクラッシュ可, Damage ()は1段目から：70、2段目から：80、3段目から：80 ヒットでタリム側の体力回復 2段目ガードからi2F以内で割り込み可（3F目に判定） 旧アップデート (Ver.1.11)1段目のガードクラッシュ値減少、2段目のガードクラッシュ値増加。 (Ver.1.40)近距離の空振り緩和でヒットサイズや追尾性能を調整。 (Ver.1.50)演出後の攻撃iタイミングが他キャラより1F遅く、発動演出を視認してGIできたのを修正。 無敵状態になる時間を1F遅くした。",
      "index": ""
    },
    {
      "attack_command": "A+B+K.28",
      "attack_name": "",
      "jp_name": "デュミンガック・ナガ・ル・ウノス(2)～AT",
      "property": "M, M(Special)",
      "damage": "20,10",
      "startup": "",
      "block": "+4",
      "hit": "+12",
      "counter_hit": "+12",
      "chip_damage": "",
      "guard_break": "",
      "notes": "CE, GC: 14% KNB: 強,強 1ゲージを消費してクリティカルエッジを発動 1段目ヒット時は派生不可 背向け発動からも同様の派生が可能 旧アップデート (Ver.1.11)新技。",
      "index": ""
    },
    {
      "attack_command": "A+B+K.6",
      "attack_name": "",
      "jp_name": "デュミンガック・ナガ・ル・ウノス(2)～AS",
      "property": "M, M(Special)",
      "damage": "20,10",
      "startup": "",
      "block": "+4",
      "hit": "+12",
      "counter_hit": "+12",
      "chip_damage": "",
      "guard_break": "",
      "notes": "CE, 1ゲージを消費してクリティカルエッジを発動 1段目ヒット時は派生不可 相手を飛び越える 背向け発動からも同様の派生が可能 旧アップデート (Ver.1.11)新技。",
      "index": ""
    },
    {
      "attack_command": "A+B+K.4",
      "attack_name": "",
      "jp_name": "デュミンガック・ナガ・ル・ウノス(2)～LAR",
      "property": "M, M(Special)",
      "damage": "20,10",
      "startup": "",
      "block": "-10",
      "hit": "-2",
      "counter_hit": "-2",
      "chip_damage": "",
      "guard_break": "",
      "notes": "CE, 1ゲージを消費してクリティカルエッジを発動 1段目ヒット時は派生不可 背向け発動からも同様の派生が可能 旧アップデート (Ver.1.11)新技。",
      "index": ""
    },
    {
      "attack_command": "4A+B+K",
      "attack_name": "",
      "jp_name": "ソウルチャージ",
      "property": "Sm",
      "damage": "0",
      "startup": "6F",
      "block": "0",
      "hit": "+8",
      "counter_hit": "+8",
      "chip_damage": "",
      "guard_break": "",
      "notes": "Ends i50, 1ゲージを消費してソウルチャージ状態になる i4Fからi保証 発動後、硬直が解除されるまで無敵",
      "index": ""
    },
    {
      "attack_command": "FC A",
      "attack_name": "",
      "jp_name": "サフォール",
      "property": "Sl",
      "damage": "10",
      "startup": "12F",
      "block": "-6",
      "hit": "+6",
      "counter_hit": "+6",
      "chip_damage": "",
      "guard_break": "",
      "notes": "Ends i42, CS: -9,13-F, GC: 1%, KNB: Weak Ends FC",
      "index": ""
    },
    {
      "attack_command": "FC B",
      "attack_name": "",
      "jp_name": "サティック",
      "property": "M",
      "damage": "18",
      "startup": "14F",
      "block": "-8",
      "hit": "+2",
      "counter_hit": "+2",
      "chip_damage": "",
      "guard_break": "",
      "notes": "Ends i45, CS: -4,18-F, GC: 2%, KNB: Weak Ends FC",
      "index": ""
    },
    {
      "attack_command": "FC 3B",
      "attack_name": "",
      "jp_name": "ウァイナルリール(1)",
      "property": "M",
      "damage": "10",
      "startup": "16F",
      "block": "-16",
      "hit": "-10",
      "counter_hit": "-6",
      "chip_damage": "",
      "guard_break": "",
      "notes": "Ends i51, CS: , GC: 2%, KNB: Weak",
      "index": ""
    },
    {
      "attack_command": "FC 3B.B",
      "attack_name": "",
      "jp_name": "ウァイナルリール",
      "property": "M, MM",
      "damage": "10,5,10",
      "startup": "",
      "block": "-22",
      "hit": "LNC",
      "counter_hit": "+8",
      "chip_damage": "",
      "guard_break": "",
      "notes": "Ends i(41), CS: , GC: 5%, KNB: Weak,Weak 3段目単体がカウンターの場合はスタンでダウン, First two hits NCC, Delayable 12F カウンター確認猶予12F",
      "index": ""
    },
    {
      "attack_command": "FC 3B.B.28",
      "attack_name": "",
      "jp_name": "ウァイナルリール～AT",
      "property": "M, MM(Special)",
      "damage": "10,5,10",
      "startup": "",
      "block": "-10",
      "hit": "LNC",
      "counter_hit": "+20",
      "chip_damage": "",
      "guard_break": "",
      "notes": "3段目単体がカウンターの場合はスタンでダウン, First two hits NCC, Delayable 12F カウンター確認猶予12F On block,i25Fまでガード不可",
      "index": ""
    },
    {
      "attack_command": "FC 3B.B.6",
      "attack_name": "",
      "jp_name": "ウァイナルリール～AS",
      "property": "M, MM(Special)",
      "damage": "10,5,10",
      "startup": "",
      "block": "-10",
      "hit": "LNC",
      "counter_hit": "+20",
      "chip_damage": "",
      "guard_break": "",
      "notes": "3段目単体がカウンターの場合はスタンでダウン, First two hits NCC, Delayable 12F カウンター確認猶予12F",
      "index": ""
    },
    {
      "attack_command": "FC 3B.B.4",
      "attack_name": "",
      "jp_name": "ウァイナルリール～LAR",
      "property": "M, MM(Special)",
      "damage": "10,5,10",
      "startup": "",
      "block": "-24",
      "hit": "LNC",
      "counter_hit": "+6",
      "chip_damage": "",
      "guard_break": "",
      "notes": "3段目単体がカウンターの場合はスタンでダウン, First two hits NCC, Delayable 12F カウンター確認猶予12F",
      "index": ""
    },
    {
      "attack_command": "FC K",
      "attack_name": "",
      "jp_name": "ジーナラックキック",
      "property": "L",
      "damage": "12",
      "startup": "16F",
      "block": "-14",
      "hit": "-4",
      "counter_hit": "-4",
      "chip_damage": "",
      "guard_break": "",
      "notes": "Ends i46, CS: -4,10-F, GC: 1%, KNB: Weak Ends FC (Ver.1.50)近距離で空振りする状況を緩和するため、ヒットサイズや追尾性能を調整。",
      "index": ""
    },
    {
      "attack_command": "FC A+B",
      "attack_name": "",
      "jp_name": "シャロスエイパル",
      "property": "HM",
      "damage": "10,20",
      "startup": "22F",
      "block": "-14",
      "hit": "LNC",
      "counter_hit": "LNC",
      "chip_damage": "",
      "guard_break": "",
      "notes": "Ends i(35), CS: 1-5F, GC: 10% KNB: 中,中",
      "index": ""
    },
    {
      "attack_command": "WR A",
      "attack_name": "",
      "jp_name": "バランディール",
      "property": "M",
      "damage": "25",
      "startup": "18F",
      "block": "-8",
      "hit": "KND",
      "counter_hit": "KND",
      "chip_damage": "",
      "guard_break": "",
      "notes": "Ends i51, CS: 1-7F, GC: 4%, KNB: 中",
      "index": ""
    },
    {
      "attack_command": "WR B",
      "attack_name": "",
      "jp_name": "ティレグラッテ",
      "property": "M",
      "damage": "18",
      "startup": "12F",
      "block": "-8",
      "hit": "+10",
      "counter_hit": "+10",
      "chip_damage": "",
      "guard_break": "",
      "notes": "Ends i39, CS: 1-7F, GC: 2%, KNB: Weak 旧アップデート (Ver.1.30), Damage ()増（15→18）。 ヒット時の相手硬直を増やした（+4F→+10F）。",
      "index": ""
    },
    {
      "attack_command": "WR K",
      "attack_name": "",
      "jp_name": "リグリエィキック",
      "property": "M",
      "damage": "20",
      "startup": "14F",
      "block": "-4",
      "hit": "+8",
      "counter_hit": "+8",
      "chip_damage": "",
      "guard_break": "",
      "notes": "Ends i39, CS: 1-4F, GC: 2%, KNB: Weak",
      "index": ""
    },
    {
      "attack_command": "JUMP A",
      "attack_name": "",
      "jp_name": "ティークツァイル",
      "property": "L",
      "damage": "18",
      "startup": "42F",
      "block": "-10",
      "hit": "+4",
      "counter_hit": "+4",
      "chip_damage": "",
      "guard_break": "",
      "notes": "Ends i71, JS: , CS: 34-F, GC: 1%, KNB: Weak, Damage ()は9A入力時 7A, Damage ()は14、8A, Damage ()16 i7F TJ Ends FC",
      "index": ""
    },
    {
      "attack_command": "JUMP B",
      "attack_name": "",
      "jp_name": "ティンパルファス",
      "property": "H",
      "damage": "28",
      "startup": "24F",
      "block": "+2s",
      "hit": "LNC",
      "counter_hit": "LNC",
      "chip_damage": "",
      "guard_break": "",
      "notes": "Ends i51, JS: , CS: 44-51F, GC: 9% KNB: 中 ヒットで背面方向に相手を飛ばす i7F TJ 旧アップデート (Ver.1.11)バトル中、リングアウトで自滅しなくなった。",
      "index": ""
    },
    {
      "attack_command": "JUMP K",
      "attack_name": "",
      "jp_name": "パリントキック",
      "property": "M",
      "damage": "20",
      "startup": "23F",
      "block": "-8",
      "hit": "+2s",
      "counter_hit": "+2s",
      "chip_damage": "",
      "guard_break": "",
      "notes": "Ends i52, JS: , GC: 2%, KNB: Weak, Damage ()は9K入力時 7K, Damage ()は16、8K, Damage ()18 i9F TJ ヒットで強制しゃがみ",
      "index": ""
    },
    {
      "attack_command": "6[6].3[3].9[9].A",
      "attack_name": "",
      "jp_name": "シーズベイン",
      "property": "HH",
      "damage": "10,16",
      "startup": "16F",
      "block": "-8",
      "hit": "+2",
      "counter_hit": "+2",
      "chip_damage": "",
      "guard_break": "",
      "notes": "Ends i(33), GC: 3%, KNB: Weak,Weak",
      "index": ""
    },
    {
      "attack_command": "6[6].3[3].9[9].A.28",
      "attack_name": "",
      "jp_name": "シーズベイン～AT",
      "property": "HH(Special)",
      "damage": "10,16",
      "startup": "",
      "block": "-4",
      "hit": "+6",
      "counter_hit": "+6",
      "chip_damage": "",
      "guard_break": "",
      "notes": "On block,i19Fまでガード不可",
      "index": ""
    },
    {
      "attack_command": "6[6].3[3].9[9].A.6",
      "attack_name": "",
      "jp_name": "シーズベイン～AS",
      "property": "HH(Special)",
      "damage": "10,16",
      "startup": "",
      "block": "-4",
      "hit": "+6",
      "counter_hit": "+6",
      "chip_damage": "",
      "guard_break": "",
      "notes": "",
      "index": ""
    },
    {
      "attack_command": "6[6].3[3].9[9].A.4",
      "attack_name": "",
      "jp_name": "シーズベイン～LAR",
      "property": "HH(Special)",
      "damage": "10,16",
      "startup": "",
      "block": "-18",
      "hit": "-8",
      "counter_hit": "-8",
      "chip_damage": "",
      "guard_break": "",
      "notes": "",
      "index": ""
    },
    {
      "attack_command": "SC 6[6].3[3].9[9].A.A",
      "attack_name": "",
      "jp_name": "ライニックベイン・クー(4)",
      "property": "HH, MM",
      "damage": "11,17,4,4",
      "startup": "",
      "block": "-12",
      "hit": "-2",
      "counter_hit": "-2",
      "chip_damage": "",
      "guard_break": "",
      "notes": "SC, Ends i(31), GC: 6%, KNB: Weak,Weak, NC (Ver.1.40)2段目がiすることを相手が視認できないようにエフェクトiタイミングを調整。",
      "index": ""
    },
    {
      "attack_command": "SC 6[6].3[3].9[9].A.A.A",
      "attack_name": "",
      "jp_name": "ライニックベイン・クー(6)",
      "property": "HH, MM, MM",
      "damage": "11,17,4,4,4,4",
      "startup": "",
      "block": "-14",
      "hit": "-4",
      "counter_hit": "-4",
      "chip_damage": "",
      "guard_break": "",
      "notes": "SC, Ends i(33), GC: 10%, KNB: Weak,Weak, NC",
      "index": ""
    },
    {
      "attack_command": "SC 6[6].3[3].9[9].A.A.A+B",
      "attack_name": "",
      "jp_name": "ライニックベイン・クー",
      "property": "HH, MM, MM, M",
      "damage": "11,17,4,4,4,4,22(33)",
      "startup": "",
      "block": "+2",
      "hit": "LNC",
      "counter_hit": "LNC",
      "chip_damage": "",
      "guard_break": "",
      "notes": "SC, BA, Ends i(43), JS: , CS: , GC: 15%, NC, Damage ()()内は(Just)入力時の, Damage ()",
      "index": ""
    },
    {
      "attack_command": "2[2].8[8].A",
      "attack_name": "",
      "jp_name": "セイスティーヴォ",
      "property": "MM",
      "damage": "16,21",
      "startup": "18F",
      "block": "-16",
      "hit": "KND",
      "counter_hit": "KND",
      "chip_damage": "",
      "guard_break": "",
      "notes": "Ends i(41), CS: 4-19F, GC: 5%, KNB: 中*2 (Ver.1.40)近距離の空振り緩和でヒットサイズや追尾性能を調整。 (Ver.1.50)近距離で空振りする状況を緩和するため、ヒットサイズや追尾性能を調整。",
      "index": ""
    },
    {
      "attack_command": "2[2].8[8].A.28",
      "attack_name": "",
      "jp_name": "セイスティーヴォ～AT",
      "property": "MM(Special)",
      "damage": "16,21",
      "startup": "",
      "block": "-20",
      "hit": "KND",
      "counter_hit": "KND",
      "chip_damage": "",
      "guard_break": "",
      "notes": "CS: 4-19F",
      "index": ""
    },
    {
      "attack_command": "2[2].8[8].A.6",
      "attack_name": "",
      "jp_name": "セイスティーヴォ～AS",
      "property": "MM(Special)",
      "damage": "16,21",
      "startup": "",
      "block": "-20",
      "hit": "KND",
      "counter_hit": "KND",
      "chip_damage": "",
      "guard_break": "",
      "notes": "CS: 4-19F",
      "index": ""
    },
    {
      "attack_command": "2[2].8[8].A.4",
      "attack_name": "",
      "jp_name": "セイスティーヴォ～LAR",
      "property": "MM(Special)",
      "damage": "16,21",
      "startup": "",
      "block": "-34",
      "hit": "KND",
      "counter_hit": "KND",
      "chip_damage": "",
      "guard_break": "",
      "notes": "CS: 4-19F",
      "index": ""
    },
    {
      "attack_command": "4[4].1[1].7[7].A",
      "attack_name": "",
      "jp_name": "サイ・ベム(1)",
      "property": "H",
      "damage": "20",
      "startup": "22F",
      "block": "-12",
      "hit": "+2",
      "counter_hit": "+2",
      "chip_damage": "",
      "guard_break": "",
      "notes": "Ends i57, GC: 1%, KNB: Weak LH上段空振りにヒット (Ver.1.40)多段技にもリーサルヒットするように修正。 1段目ヒット後のコンボ補正を緩和。",
      "index": ""
    },
    {
      "attack_command": "4[4].1[1].7[7].A.A",
      "attack_name": "",
      "jp_name": "サイ・ベム",
      "property": "H, M",
      "damage": "20,30",
      "startup": "",
      "block": "-14",
      "hit": "STN",
      "counter_hit": "STN",
      "chip_damage": "",
      "guard_break": "",
      "notes": "Ends i(33), GC: 3%, KNB: 中, NC",
      "index": ""
    },
    {
      "attack_command": "4[4].1[1].7[7].A.[A]",
      "attack_name": "",
      "jp_name": "サイ・ベム（ホールド）",
      "property": "H, M",
      "damage": "20,45",
      "startup": "",
      "block": "+8",
      "hit": "STN",
      "counter_hit": "STN",
      "chip_damage": "",
      "guard_break": "",
      "notes": "BA, Ends i(33), GC: 3%, (Ver.1.40)空中ヒット時のモーションを変更。 (Ver.1.50)ホールドしてもホールド版の性能にならないことがあったのを修正。",
      "index": ""
    },
    {
      "attack_command": "6[6].3[3].9[9].B",
      "attack_name": "",
      "jp_name": "ヴァンブレイ",
      "property": "H",
      "damage": "26",
      "startup": "22F",
      "block": "-4",
      "hit": "KND",
      "counter_hit": "KND",
      "chip_damage": "",
      "guard_break": "",
      "notes": "Ends i53, JS: 12-34F, GC: 4% KNB: 中 LHバックステップにランカウンター 判定持続6F 旧アップデート (Ver.1.11)バトル中、リングアウトで自滅しなくなった。 (Ver.1.30)相手攻撃の空振りに対する追尾性能を強化。 (Ver.1.40)近距離の空振り緩和でヒットサイズや追尾性能を調整。",
      "index": ""
    },
    {
      "attack_command": "SC 6[6].3[3].9[9].B",
      "attack_name": "",
      "jp_name": "ヴァンヤン・ハルハ・クー(1)",
      "property": "Sm",
      "damage": "28",
      "startup": "22F",
      "block": "-4",
      "hit": "STN",
      "counter_hit": "STN",
      "chip_damage": "",
      "guard_break": "",
      "notes": "SC, Ends i53, JS: 12-34F, GC: 4% KNB: 中 LHバックステップにランカウンター ヒットでスタン、i12Fまで地上ヒット 判定持続6F 旧アップデート (Ver.1.30)ソウルチャージで判定が変更（上→特中）、ゲージを消費。 やられモーションを変更（ダウン→スタン）。 コンボ補正。 相手攻撃の空振りに対する追尾性能を強化。",
      "index": ""
    },
    {
      "attack_command": "SC 6[6].3[3].9[9].B.B",
      "attack_name": "",
      "jp_name": "ヴァンヤン・ハルハ・クー",
      "property": "Sm, M",
      "damage": "28,24(,8)",
      "startup": "",
      "block": "+4",
      "hit": "LNC",
      "counter_hit": "LNC",
      "chip_damage": "",
      "guard_break": "",
      "notes": "SC, BA, Ends i(41), JS: , CS: , GC: 10%, Damage ()()内は落下時, Damage () 旧アップデート (Ver.1.30)コンボ補正。 ステージ端での空振り対策で追尾性能を向上。",
      "index": ""
    },
    {
      "attack_command": "2[2].8[8].B",
      "attack_name": "",
      "jp_name": "アープ・ティオ(1)",
      "property": "M",
      "damage": "21",
      "startup": "22F",
      "block": "-16",
      "hit": "LNC",
      "counter_hit": "LNC",
      "chip_damage": "",
      "guard_break": "",
      "notes": "Ends i60, GC: 7%, KNB: 中 旧アップデート (Ver.1.11)相手空振りに対する追尾性能強化。",
      "index": ""
    },
    {
      "attack_command": "2[2].8[8].B.B",
      "attack_name": "",
      "jp_name": "アープ・ティオ",
      "property": "M, M",
      "damage": "21,25",
      "startup": "",
      "block": "-14s",
      "hit": "-2s",
      "counter_hit": "-2s",
      "chip_damage": "",
      "guard_break": "",
      "notes": "Ends i(38), GC: 11% KNB: 中 ガード or ヒットで強制しゃがみ",
      "index": ""
    },
    {
      "attack_command": "2[2].8[8].B.B(Just)",
      "attack_name": "",
      "jp_name": "アープ・ティオ（(Just)）",
      "property": "M, MM",
      "damage": "21,15,21",
      "startup": "",
      "block": "-14s",
      "hit": "KND",
      "counter_hit": "KND",
      "chip_damage": "",
      "guard_break": "",
      "notes": "Ends i(38), GC: 14% KNB: 強 空中ヒット時の挙動がノーマルから変化 (Ver.1.40)入力の難易度を下げた。",
      "index": ""
    },
    {
      "attack_command": "4[4].1[1].7[7].B",
      "attack_name": "",
      "jp_name": "ティーベルザック～背向け",
      "property": "M(Special)",
      "damage": "28",
      "startup": "26F",
      "block": "-14s",
      "hit": "+6s",
      "counter_hit": "+6s",
      "chip_damage": "",
      "guard_break": "",
      "notes": "Ends i59, JS: 8-26F, CS: 26-51F, GC: 9% KNB: 中 LH下段攻撃の空振りにヒット ガード or ヒットで強制しゃがみ 旧アップデート (Ver.1.11)バトル中、リングアウトで自滅しなくなった。 (Ver.1.40)多段技にもリーサルヒットするように修正。",
      "index": ""
    },
    {
      "attack_command": "4[4].1[1].7[7].B.28",
      "attack_name": "",
      "jp_name": "ティーベルザック～AT",
      "property": "M(Special)",
      "damage": "28",
      "startup": "",
      "block": "-4s",
      "hit": "+16s",
      "counter_hit": "+16s",
      "chip_damage": "",
      "guard_break": "",
      "notes": "JS: 8-26F, CS: 26-51F ガード or ヒットで強制しゃがみ On block,i19Fまでガード不可",
      "index": ""
    },
    {
      "attack_command": "4[4].1[1].7[7].B.6",
      "attack_name": "",
      "jp_name": "ティーベルザック～AS",
      "property": "M(Special)",
      "damage": "28",
      "startup": "",
      "block": "-4s",
      "hit": "+16s",
      "counter_hit": "+16s",
      "chip_damage": "",
      "guard_break": "",
      "notes": "JS: 8-26F, CS: 26-51F ガード or ヒットで強制しゃがみ",
      "index": ""
    },
    {
      "attack_command": "4[4].1[1].7[7].B.4",
      "attack_name": "",
      "jp_name": "ティーベルザック～LAR",
      "property": "M(Special)",
      "damage": "28",
      "startup": "",
      "block": "-4s",
      "hit": "+2s",
      "counter_hit": "+2s",
      "chip_damage": "",
      "guard_break": "",
      "notes": "JS: 8-26F, CS: 26-51F ガード or ヒットで強制しゃがみ",
      "index": ""
    },
    {
      "attack_command": "6[6].3[3].9[9].K",
      "attack_name": "",
      "jp_name": "シャルディキック",
      "property": "M",
      "damage": "20",
      "startup": "34F",
      "block": "+2s",
      "hit": "LNC",
      "counter_hit": "LNC",
      "chip_damage": "",
      "guard_break": "",
      "notes": "Ends i58, JS: 14-42F, GC: 9% KNB: 中 ガードで強制しゃがみ 旧アップデート (Ver.1.11)バトル中、リングアウトで自滅しなくなった。",
      "index": ""
    },
    {
      "attack_command": "2[2].8[8].K",
      "attack_name": "",
      "jp_name": "ティシィッカル",
      "property": "H",
      "damage": "17",
      "startup": "18F",
      "block": "-4",
      "hit": "+6y",
      "counter_hit": "+6y",
      "chip_damage": "",
      "guard_break": "",
      "notes": "Ends i43, JS: 10-27F, CS: 4-10F, GC: 1%, KNB: Weak 軸ずれで背面取りになりやすい",
      "index": ""
    },
    {
      "attack_command": "4[4].1[1].7[7].K",
      "attack_name": "",
      "jp_name": "ラディエールキック～背向け",
      "property": "MH(Special)",
      "damage": "16,22",
      "startup": "18F",
      "block": "-8B",
      "hit": "KND",
      "counter_hit": "KND",
      "chip_damage": "",
      "guard_break": "",
      "notes": "Ends i(33), JS: 18-42F, GC: 9% KNB: Weak,中 On block, Switch sides &タリム背向け On hit,相手を右手方向に飛ばしてタリム側背向け 旧アップデート (Ver.1.11)バトル中、リングアウトで自滅しなくなった。",
      "index": ""
    },
    {
      "attack_command": "[6]走り中K",
      "attack_name": "",
      "jp_name": "メイウェイキック",
      "property": "L",
      "damage": "26",
      "startup": "20F",
      "block": "-22",
      "hit": "KND",
      "counter_hit": "KND",
      "chip_damage": "",
      "guard_break": "",
      "notes": "Ends i61, JS: 6-24F, CS: 24-59F, GC: 9% KNB: 中",
      "index": ""
    },
    {
      "attack_command": "体力ピンチ時に[6]走り中K",
      "attack_name": "",
      "jp_name": "メイウェイキックだったのに",
      "property": "L",
      "damage": "36",
      "startup": "20F",
      "block": "-10",
      "hit": "KND",
      "counter_hit": "KND",
      "chip_damage": "",
      "guard_break": "",
      "notes": "Ends i54, JS: 6-24F, CS: 24-59F, GC: 15% KNB: 強 LH立ちガード中の相手にヒット トレーニングモード中は走り中A+Kで可 旧アップデート (Ver.1.10)トレーニングモード用のコマンド追加",
      "index": ""
    },
    {
      "attack_command": "6[6].3[3].9[9].A+B",
      "attack_name": "",
      "jp_name": "アモエイパル",
      "property": "MM",
      "damage": "16,20",
      "startup": "28F",
      "block": "-10",
      "hit": "LNC",
      "counter_hit": "LNC",
      "chip_damage": "",
      "guard_break": "",
      "notes": "Ends i(43), CS: 13-22F, GC: 14% KNB: 中,中",
      "index": ""
    },
    {
      "attack_command": "6[6].3[3].9[9].A+B.28",
      "attack_name": "",
      "jp_name": "アモエイパル～AT",
      "property": "MM(Special)",
      "damage": "16,20",
      "startup": "",
      "block": "+4",
      "hit": "LNC",
      "counter_hit": "LNC",
      "chip_damage": "",
      "guard_break": "",
      "notes": "CS: 13-22F",
      "index": ""
    },
    {
      "attack_command": "6[6].3[3].9[9].A+B.6",
      "attack_name": "",
      "jp_name": "アモエイパル～AS",
      "property": "MM(Special)",
      "damage": "16,20",
      "startup": "",
      "block": "+4",
      "hit": "LNC",
      "counter_hit": "LNC",
      "chip_damage": "",
      "guard_break": "",
      "notes": "CS: 13-22F",
      "index": ""
    },
    {
      "attack_command": "6[6].3[3].9[9].A+B.4",
      "attack_name": "",
      "jp_name": "アモエイパル～LAR",
      "property": "MM(Special)",
      "damage": "16,20",
      "startup": "",
      "block": "-10",
      "hit": "LNC",
      "counter_hit": "LNC",
      "chip_damage": "",
      "guard_break": "",
      "notes": "CS: 13-22F",
      "index": ""
    },
    {
      "attack_command": "4[4].1[1].7[7].A+B",
      "attack_name": "",
      "jp_name": "エルダンティッカル",
      "property": "M*4",
      "damage": "5,5,10,10",
      "startup": "24F",
      "block": "-10",
      "hit": "KND",
      "counter_hit": "KND",
      "chip_damage": "",
      "guard_break": "",
      "notes": "Ends i(35), JS: 10-35F, GC: 12% KNB: Weak*2,中*2",
      "index": ""
    },
    {
      "attack_command": "BT A",
      "attack_name": "",
      "jp_name": "ヴァートブレイ・リオディア(3)",
      "property": "M*3",
      "damage": "5*3",
      "startup": "18F",
      "block": "-16",
      "hit": "-6",
      "counter_hit": "-6",
      "chip_damage": "",
      "guard_break": "",
      "notes": "Ends i(45), CS: 12F, GC: 4%, KNB: Weak",
      "index": ""
    },
    {
      "attack_command": "BT A.A",
      "attack_name": "",
      "jp_name": "ヴァートブレイ・リオディア(6)",
      "property": "M*3 M*3",
      "damage": "5*3,5*3",
      "startup": "",
      "block": "-16",
      "hit": "-4",
      "counter_hit": "-4",
      "chip_damage": "",
      "guard_break": "",
      "notes": "Ends i(43), GC: 8%, KNB: Weak, NC",
      "index": ""
    },
    {
      "attack_command": "BT A.A+B",
      "attack_name": "",
      "jp_name": "ヴァートブレイ・リオディア",
      "property": "M*3 M*3 M*3",
      "damage": "5*3,5*3,5,5,10",
      "startup": "",
      "block": "-20",
      "hit": "STN",
      "counter_hit": "STN",
      "chip_damage": "",
      "guard_break": "",
      "notes": "Ends i(50), GC: 12%, KNB: Weak, NC 旧アップデート (Ver.1.30)近距離で空振りする状況を緩和するためヒットサイズ拡大。",
      "index": ""
    },
    {
      "attack_command": "BT 2A",
      "attack_name": "",
      "jp_name": "フィサオール",
      "property": "Sl",
      "damage": "10",
      "startup": "14F",
      "block": "-6",
      "hit": "+6",
      "counter_hit": "+6",
      "chip_damage": "",
      "guard_break": "",
      "notes": "Ends i43, CS: 8-F, GC: 1%, KNB: Weak Ends FC",
      "index": ""
    },
    {
      "attack_command": "BT B",
      "attack_name": "",
      "jp_name": "マイズウォート",
      "property": "M",
      "damage": "25",
      "startup": "20F",
      "block": "-8",
      "hit": "STN",
      "counter_hit": "STN",
      "chip_damage": "",
      "guard_break": "",
      "notes": "Ends i57, GC: 9% KNB: 中 ヒットでスタン、i16Fまで地上ヒット 旧アップデート (Ver.1.10)Block: -20F→-8F",
      "index": ""
    },
    {
      "attack_command": "BT 2B",
      "attack_name": "",
      "jp_name": "ファスツゼィアム",
      "property": "M",
      "damage": "16",
      "startup": "16F",
      "block": "-8",
      "hit": "+2",
      "counter_hit": "+2",
      "chip_damage": "",
      "guard_break": "",
      "notes": "Ends i47, CS: 20-F, GC: 2%, KNB: Weak Ends FC",
      "index": ""
    },
    {
      "attack_command": "BT K",
      "attack_name": "",
      "jp_name": "ケースフリンクキック～背向け",
      "property": "H(Special)",
      "damage": "22",
      "startup": "16F",
      "block": "-14",
      "hit": "KND",
      "counter_hit": "KND",
      "chip_damage": "",
      "guard_break": "",
      "notes": "Ends i55, JS: 8-F, CS: 2-8,30-47F, GC: 9% KNB: 中",
      "index": ""
    },
    {
      "attack_command": "BT 2K",
      "attack_name": "",
      "jp_name": "ファスツキック",
      "property": "L",
      "damage": "14",
      "startup": "18F",
      "block": "-14",
      "hit": "0",
      "counter_hit": "0",
      "chip_damage": "",
      "guard_break": "",
      "notes": "Ends i51, CS: 3-F, GC: 1%, KNB: Weak Ends FC",
      "index": ""
    },
    {
      "attack_command": "BT A+B",
      "attack_name": "",
      "jp_name": "ティンバティベル",
      "property": "H",
      "damage": "30",
      "startup": "24F",
      "block": "+6",
      "hit": "KND",
      "counter_hit": "KND",
      "chip_damage": "",
      "guard_break": "",
      "notes": "BA, Ends i51, GC: 9% LH相手の攻撃の動作中にヒット 旧アップデート (Ver.1.11)至近距離で空振りしないようにヒットサイズ修正。",
      "index": ""
    },
    {
      "attack_command": "BT [A+B]",
      "attack_name": "",
      "jp_name": "ティンバティベル（ホールド）",
      "property": "H",
      "damage": "50",
      "startup": "44F",
      "block": "+12",
      "hit": "KND",
      "counter_hit": "KND",
      "chip_damage": "",
      "guard_break": "",
      "notes": "BA, Ends i(27), GC: 9% 旧アップデート (Ver.1.11)至近距離で空振りしないようにヒットサイズ修正。",
      "index": ""
    },
    {
      "attack_command": "BT B+K",
      "attack_name": "",
      "jp_name": "カルワンプルップ（予備動作）～背向け",
      "property": "(Special)",
      "damage": "-",
      "startup": "",
      "block": "",
      "hit": "",
      "counter_hit": "",
      "chip_damage": "",
      "guard_break": "",
      "notes": "Ends i34, JS: 8F 旧アップデート (Ver.1.11)バトル中、リングアウトで自滅しなくなった。",
      "index": ""
    },
    {
      "attack_command": "BT B+K.A+B",
      "attack_name": "",
      "jp_name": "カルワンプルップ～背向け",
      "property": "(Special) M*4(Special)",
      "damage": "8,7,6,5",
      "startup": "57F",
      "block": "+12",
      "hit": "STN",
      "counter_hit": "STN",
      "chip_damage": "",
      "guard_break": "",
      "notes": "BA, Ends i(27), CS: 19-50F, GC: 5%, KNB: Weak*3,- On hit,i16Fまで地上ヒット 旧アップデート (Ver.1.11)追尾性能強化、近距離で横移動や横転に空振りして反対方向に攻撃していた現象の対策。 (Ver.1.40)一部キャラのリバーサルエッジに4段目が空振りしていたため、リバーサルエッジに対してヒットサイズを拡大。 攻撃動作中、相手方向へ前進し続けることがあったのを修正。",
      "index": ""
    },
    {
      "attack_command": "BT [B+K]",
      "attack_name": "",
      "jp_name": "カルワンプルップ（ホールド・予備動作）～背向け",
      "property": "(Special)*2",
      "damage": "-",
      "startup": "",
      "block": "",
      "hit": "",
      "counter_hit": "",
      "chip_damage": "",
      "guard_break": "",
      "notes": "旧アップデート (Ver.1.11)バトル中、リングアウトで自滅しなくなった。",
      "index": ""
    },
    {
      "attack_command": "BT [B+K].A+B",
      "attack_name": "",
      "jp_name": "カルワンプルップ（ホールド）～背向け",
      "property": "(Special)*2 M!*4(Special)",
      "damage": "10,9,7,6",
      "startup": "",
      "block": "STN",
      "hit": "STN",
      "counter_hit": "STN",
      "chip_damage": "",
      "guard_break": "",
      "notes": "UA, 旧アップデート (Ver.1.11)追尾性能強化、近距離で横移動や横転に空振りして反対方向に攻撃していた現象の対策。",
      "index": ""
    },
    {
      "attack_command": "背向け中A+B+K",
      "attack_name": "",
      "jp_name": "デュミンガック・ナガ・ル・ウノス",
      "property": "MMM(TA)",
      "damage": "20,10,20(,50)",
      "startup": "18F",
      "block": "+4",
      "hit": "Throw",
      "counter_hit": "Throw",
      "chip_damage": "",
      "guard_break": "",
      "notes": "CE, Ends i(37), JS: 4F, GC: 23% KNB: 強,強,強 1ゲージを消費してクリティカルエッジを発動 正面始動との違いはi i保証17Fから 1～3段までのどれでもガードクラッシュ可 1段目にコンボ補正があり、その場合は合計, Damage ()70 ヒットでタリム側の体力回復 2段目ガードからi2F以内で割り込み可（3F目に判定） 旧アップデート (Ver.1.11)1段目のガードクラッシュ値減少、2段目のガードクラッシュ値増加。 (Ver.1.40)近距離の空振り緩和でヒットサイズや追尾性能を調整。 (Ver.1.50)演出後の攻撃iタイミングが他キャラより1F遅く、発動演出を視認してGIできたのを修正。 無敵状態になる時間を1F遅くした。",
      "index": ""
    },
    {
      "attack_command": "28B+K",
      "attack_name": "",
      "jp_name": "エアターン",
      "property": "(Special)",
      "damage": "-",
      "startup": "",
      "block": "",
      "hit": "",
      "counter_hit": "",
      "chip_damage": "",
      "guard_break": "",
      "notes": "Ends i35, 派生技の最速iにコスト20F i25Fまで派生技の入力受付 硬直解除に15F",
      "index": ""
    },
    {
      "attack_command": "AT中A",
      "attack_name": "",
      "jp_name": "ティジィパゥディー(1)",
      "property": "HH",
      "damage": "6,10",
      "startup": "12F",
      "block": "-16",
      "hit": "-8",
      "counter_hit": "-8",
      "chip_damage": "",
      "guard_break": "",
      "notes": "Ends i(39), GC: 3%, KNB: Weak,Weak",
      "index": ""
    },
    {
      "attack_command": "AT中A.28",
      "attack_name": "",
      "jp_name": "ティジィパゥディー(1)～AT",
      "property": "HH(Special)",
      "damage": "6,10",
      "startup": "",
      "block": "-4",
      "hit": "+4",
      "counter_hit": "+4",
      "chip_damage": "",
      "guard_break": "",
      "notes": "ガードからi19Fまでガード不可",
      "index": ""
    },
    {
      "attack_command": "AT中A.6",
      "attack_name": "",
      "jp_name": "ティジィパゥディー(1)～AS",
      "property": "HH(Special)",
      "damage": "6,10",
      "startup": "",
      "block": "-4",
      "hit": "+4",
      "counter_hit": "+4",
      "chip_damage": "",
      "guard_break": "",
      "notes": "",
      "index": ""
    },
    {
      "attack_command": "AT中A.4",
      "attack_name": "",
      "jp_name": "ティジィパゥディー(1)～LAR",
      "property": "HH(Special)",
      "damage": "6,10",
      "startup": "",
      "block": "-18",
      "hit": "-10",
      "counter_hit": "-10",
      "chip_damage": "",
      "guard_break": "",
      "notes": "",
      "index": ""
    },
    {
      "attack_command": "AT中A+B",
      "attack_name": "",
      "jp_name": "ティジィパゥディー～背向け",
      "property": "HH, M(Special)",
      "damage": "6,10,25",
      "startup": "",
      "block": "-4",
      "hit": "+12",
      "counter_hit": "+12",
      "chip_damage": "",
      "guard_break": "",
      "notes": "Ends i(32), GC: 8% KNB: 中, First two hits NCC, Delayable 17（31）F 1段目カウンターからの確認猶予26F",
      "index": ""
    },
    {
      "attack_command": "SC&amp;AT中A+B.B",
      "attack_name": "",
      "jp_name": "ティジィ・ラプ・ファルクール",
      "property": "HH, M, M*3",
      "damage": "6,11,27,9,9,9(,3)",
      "startup": "",
      "block": "-8",
      "hit": "LNC",
      "counter_hit": "LNC",
      "chip_damage": "",
      "guard_break": "",
      "notes": "SC, Ends i(37), GC: 27% KNB: 中,中,強, Third two hits NC",
      "index": ""
    },
    {
      "attack_command": "AT中A+K",
      "attack_name": "",
      "jp_name": "ティジィブレイ(2)",
      "property": "HH, L",
      "damage": "6,10,20",
      "startup": "",
      "block": "-16",
      "hit": "-6",
      "counter_hit": "-6",
      "chip_damage": "",
      "guard_break": "",
      "notes": "Ends i(35), CS: , GC: 5%, KNB: Weak, First two hits NCC, Delayable 17（31）F 1段目カウンターからの確認猶予25F Ends FC",
      "index": ""
    },
    {
      "attack_command": "AT中A+K.A",
      "attack_name": "",
      "jp_name": "ティジィブレイ",
      "property": "HH, L, H",
      "damage": "6,10,20,16",
      "startup": "",
      "block": "-4",
      "hit": "+6",
      "counter_hit": "+6",
      "chip_damage": "",
      "guard_break": "",
      "notes": "Ends i(27), CS: , GC: 6%, KNB: Weak, Third two hits NC (Ver.1.40)近距離の空振り緩和でヒットサイズや追尾性能を調整。 (Ver.1.50)近距離で空振りする状況を緩和するため、ヒットサイズや追尾性能を調整。",
      "index": ""
    },
    {
      "attack_command": "SC&amp;AT中A+K.A.A",
      "attack_name": "",
      "jp_name": "ティジィブレイ・パラム・ティーヴォ",
      "property": "HH, L, H, MM",
      "damage": "6,11,22,17,11,24",
      "startup": "",
      "block": "-16",
      "hit": "KND",
      "counter_hit": "KND",
      "chip_damage": "",
      "guard_break": "",
      "notes": "SC, Ends i(39), JS: , CS: , GC: 9%, KNB: 中*2, Third two hits NC (Ver.1.50)近距離で空振りする状況を緩和するため、ヒットサイズや追尾性能を調整。",
      "index": ""
    },
    {
      "attack_command": "SC&amp;AT中A+K.A.A.28",
      "attack_name": "",
      "jp_name": "ティジィブレイ・パラム・ティーヴォ～AT",
      "property": "HH, L, H, MM(Special)",
      "damage": "6,11,22,17,11,24",
      "startup": "",
      "block": "-20",
      "hit": "KND",
      "counter_hit": "KND",
      "chip_damage": "",
      "guard_break": "",
      "notes": "SC, Third two hits NC",
      "index": ""
    },
    {
      "attack_command": "SC&amp;AT中A+K.A.A.6",
      "attack_name": "",
      "jp_name": "ティジィブレイ・パラム・ティーヴォ～AS",
      "property": "HH, L, H, MM(Special)",
      "damage": "6,11,22,17,11,24",
      "startup": "",
      "block": "-20",
      "hit": "KND",
      "counter_hit": "KND",
      "chip_damage": "",
      "guard_break": "",
      "notes": "SC, Third two hits NC",
      "index": ""
    },
    {
      "attack_command": "SC&amp;AT中A+K.A.A.4",
      "attack_name": "",
      "jp_name": "ティジィブレイ・パラム・ティーヴォ～AS",
      "property": "HH, L, H, MM(Special)",
      "damage": "6,11,22,17,11,24",
      "startup": "",
      "block": "-34",
      "hit": "KND",
      "counter_hit": "KND",
      "chip_damage": "",
      "guard_break": "",
      "notes": "SC, Third two hits NC",
      "index": ""
    },
    {
      "attack_command": "AT中B",
      "attack_name": "",
      "jp_name": "イェルバッファー(1)",
      "property": "M",
      "damage": "16",
      "startup": "20F",
      "block": "-12",
      "hit": "-2",
      "counter_hit": "+2",
      "chip_damage": "",
      "guard_break": "",
      "notes": "Ends i51, GC: 2%, KNB: Weak 旧アップデート (Ver.1.11)硬直減、ガード時の相手硬直減（ノーマルヒット-4F→-2F、カウンター0F→+2F）。 (Ver.1.50)横斬り扱いになってしまうことがあったので縦斬り扱いに統一した。",
      "index": ""
    },
    {
      "attack_command": "AT中B.B",
      "attack_name": "",
      "jp_name": "イェルバッファー",
      "property": "M, M",
      "damage": "16,20",
      "startup": "",
      "block": "-8",
      "hit": "+6",
      "counter_hit": "LNC",
      "chip_damage": "",
      "guard_break": "",
      "notes": "Ends i(37), GC: 9% KNB: 中, NC 旧アップデート (Ver.1.10)Block: -18F→-12F。 (Ver.1.11)相手硬直増（Block: -12F→-8F、ヒット0F→+6F）。 (Ver.1.40)近距離の空振り緩和でヒットサイズや追尾性能を調整。",
      "index": ""
    },
    {
      "attack_command": "AT中B, Delay B",
      "attack_name": "",
      "jp_name": "イェルバ・クー",
      "property": "M, M",
      "damage": "16,25",
      "startup": "",
      "block": "0",
      "hit": "LNC",
      "counter_hit": "LNC",
      "chip_damage": "",
      "guard_break": "",
      "notes": "BA, Ends i(39), JS: , CS: , GC: 9%, NC, Delayable 11F 旧アップデート (Ver.1.10)Block: -4F→0F (Ver.1.11)1段目ガード時に2段目を横移動で回避しやすくなるように調整。 コンボ補正。 (Ver.1.30)1段目をリバーサルエッジで受け流された場合の2段目の追尾性能を上げた。",
      "index": ""
    },
    {
      "attack_command": "AT中B, Delay B(Just)",
      "attack_name": "",
      "jp_name": "イェルバ・クー（(Just)）",
      "property": "M, M",
      "damage": "16,35",
      "startup": "",
      "block": "0",
      "hit": "LNC",
      "counter_hit": "LNC",
      "chip_damage": "",
      "guard_break": "",
      "notes": "BA, Ends i(39), JS: , CS: , GC: 9%, NC 旧アップデート (Ver.1.10)Block: -4F→0F (Ver.1.11)1段目ガード時に2段目を横移動で回避しやすくなるように調整。 コンボ補正。",
      "index": ""
    },
    {
      "attack_command": "AT中K",
      "attack_name": "",
      "jp_name": "スファンキック",
      "property": "M",
      "damage": "21",
      "startup": "14F",
      "block": "-8",
      "hit": "KND",
      "counter_hit": "KND",
      "chip_damage": "",
      "guard_break": "",
      "notes": "Ends i45, CS: 7-14F, GC: 9%, KNB: 中 LH相手の中段攻撃の空振りにヒット 旧アップデート (Ver.1.10)Block: -10F→-8F (Ver.1.40)多段技にもリーサルヒットするように修正。",
      "index": ""
    },
    {
      "attack_command": "AT中A+B",
      "attack_name": "",
      "jp_name": "メイヴァリン",
      "property": "L",
      "damage": "27",
      "startup": "32F",
      "block": "0",
      "hit": "+10",
      "counter_hit": "+10",
      "chip_damage": "",
      "guard_break": "",
      "notes": "Ends i61, JS: 11-16F, CS: 21-51F, GC: 9% KNB: 強 (Ver.1.50)近距離で空振りする状況を緩和するため、ヒットサイズや追尾性能を調整。",
      "index": ""
    },
    {
      "attack_command": "6B+K",
      "attack_name": "",
      "jp_name": "エアソルト",
      "property": "(Special)",
      "damage": "-",
      "startup": "",
      "block": "",
      "hit": "",
      "counter_hit": "",
      "chip_damage": "",
      "guard_break": "",
      "notes": "Ends i51, JS: 10F 派生技のiにコスト20F（固定）",
      "index": ""
    },
    {
      "attack_command": "AS中A",
      "attack_name": "",
      "jp_name": "ティティオール",
      "property": "L",
      "damage": "26",
      "startup": "20F",
      "block": "-20",
      "hit": "+4s",
      "counter_hit": "STN",
      "chip_damage": "",
      "guard_break": "",
      "notes": "Ends i59, JS: 1-14F, CS: 15F, GC: 4%, KNB: 中 ノーマルヒットで強制しゃがみ Ends FC 旧アップデート (Ver.1.10)追尾性能強化。 (Ver.1.11)バトル中、リングアウトで自滅しなくなった。",
      "index": ""
    },
    {
      "attack_command": "AS中A.28",
      "attack_name": "",
      "jp_name": "ティティオール～AT",
      "property": "L(Special)",
      "damage": "26",
      "startup": "",
      "block": "-18",
      "hit": "+6s",
      "counter_hit": "STN",
      "chip_damage": "",
      "guard_break": "",
      "notes": "ノーマルヒットで強制しゃがみ",
      "index": ""
    },
    {
      "attack_command": "AS中A.6",
      "attack_name": "",
      "jp_name": "ティティオール～AS",
      "property": "L(Special)",
      "damage": "26",
      "startup": "",
      "block": "-18",
      "hit": "+6s",
      "counter_hit": "STN",
      "chip_damage": "",
      "guard_break": "",
      "notes": "ノーマルヒットで強制しゃがみ",
      "index": ""
    },
    {
      "attack_command": "AS中A.4",
      "attack_name": "",
      "jp_name": "ティティオール～LAR",
      "property": "L(Special)",
      "damage": "26",
      "startup": "",
      "block": "-32",
      "hit": "-8s",
      "counter_hit": "STN",
      "chip_damage": "",
      "guard_break": "",
      "notes": "ノーマルヒットで強制しゃがみ",
      "index": ""
    },
    {
      "attack_command": "AS中B",
      "attack_name": "",
      "jp_name": "カザックセンティ",
      "property": "M",
      "damage": "32",
      "startup": "18F",
      "block": "-14s",
      "hit": "KND",
      "counter_hit": "KND",
      "chip_damage": "",
      "guard_break": "",
      "notes": "Ends i57, JS: 1-16F, GC: 9% KNB: 中 ガードで強制しゃがみ 旧アップデート (Ver.1.10)空中ヒットのやられ挙動を変更。 (Ver.1.11)バトル中、リングアウトで自滅しなくなった。 (Ver.1.40)8WAY-RUNに当たりづらくなるよう、左右方向のヒットサイズを縮小。",
      "index": ""
    },
    {
      "attack_command": "AS中[B]",
      "attack_name": "",
      "jp_name": "カザックセンティ～AR",
      "property": "M(Special)",
      "damage": "32",
      "startup": "",
      "block": "-6s",
      "hit": "KND",
      "counter_hit": "KND",
      "chip_damage": "",
      "guard_break": "",
      "notes": "ガードで強制しゃがみ",
      "index": ""
    },
    {
      "attack_command": "SC&amp;AS中B",
      "attack_name": "",
      "jp_name": "カザック・レコ・トトゥ",
      "property": "M",
      "damage": "39",
      "startup": "18F",
      "block": "+4",
      "hit": "LNC",
      "counter_hit": "LNC",
      "chip_damage": "",
      "guard_break": "",
      "notes": "SC, BA, Ends i57, GC: 9% 旧アップデート (Ver.1.11)バトル中、リングアウトで自滅しなくなった。",
      "index": ""
    },
    {
      "attack_command": "SC&amp;AS中[B]",
      "attack_name": "",
      "jp_name": "カザック・レコ・トトゥ～AR",
      "property": "M(Special)",
      "damage": "39",
      "startup": "",
      "block": "+12",
      "hit": "LNC",
      "counter_hit": "LNC",
      "chip_damage": "",
      "guard_break": "",
      "notes": "SC, BA",
      "index": ""
    },
    {
      "attack_command": "AS中K",
      "attack_name": "",
      "jp_name": "クーリークキック",
      "property": "H",
      "damage": "20",
      "startup": "13F",
      "block": "-22",
      "hit": "KND",
      "counter_hit": "KND",
      "chip_damage": "",
      "guard_break": "",
      "notes": "JS: , GC: 9% KNB: 中 空振り時、ダウン帰着 ヒット時エアソルトに移行 旧アップデート (Ver.1.10)派生が先行入力できるようになった 特殊入力で再度エアソルト移行できたのを修正",
      "index": ""
    },
    {
      "attack_command": "AS中[K]",
      "attack_name": "",
      "jp_name": "リックセイツァーキック",
      "property": "M",
      "damage": "21",
      "startup": "15F",
      "block": "-6",
      "hit": "KND",
      "counter_hit": "KND",
      "chip_damage": "",
      "guard_break": "",
      "notes": "Ends i47, GC: 9% KNB: 中 相手を飛び越えた場合、背面に攻撃する",
      "index": ""
    },
    {
      "attack_command": "AS中A+B",
      "attack_name": "",
      "jp_name": "ケントサン・ルッキート",
      "property": "M*3",
      "damage": "6,6,16",
      "startup": "8F",
      "block": "-16s",
      "hit": "KND",
      "counter_hit": "KND",
      "chip_damage": "",
      "guard_break": "",
      "notes": "Ends i(39), JS: , CS: , GC: 18% KNB: 中*3 ガードで強制しゃがみ (Ver.1.40)8WAY-RUNに当たりづらくなるよう、1段目空振り時のみ左右方向のヒットサイズを縮小。",
      "index": ""
    },
    {
      "attack_command": "B+K",
      "attack_name": "",
      "jp_name": "エアレイジ",
      "property": "(Special)",
      "damage": "-",
      "startup": "",
      "block": "",
      "hit": "",
      "counter_hit": "",
      "chip_damage": "",
      "guard_break": "",
      "notes": "派生技の最速iにコスト20F Gでキャンセル～Ends FC 上中段横斬り回避、蹴り不可、i12～F（構え維持で継続） (Ver.1.40)Gキャンセル入力が意図しないタイミングで認識されないように、入力受付を修正。",
      "index": ""
    },
    {
      "attack_command": "4B+K.4[4].B+K",
      "attack_name": "",
      "jp_name": "リープエアレイジ（LAR）",
      "property": "(Special)(Special)",
      "damage": "-",
      "startup": "",
      "block": "",
      "hit": "",
      "counter_hit": "",
      "chip_damage": "",
      "guard_break": "",
      "notes": "派生技の最速iにコスト34F",
      "index": ""
    },
    {
      "attack_command": "AR中28",
      "attack_name": "",
      "jp_name": "エアレイジ～AT",
      "property": "(Special)",
      "damage": "-",
      "startup": "",
      "block": "",
      "hit": "",
      "counter_hit": "",
      "chip_damage": "",
      "guard_break": "",
      "notes": "",
      "index": ""
    },
    {
      "attack_command": "AR中6",
      "attack_name": "",
      "jp_name": "エアレイジ～AS",
      "property": "(Special)",
      "damage": "-",
      "startup": "",
      "block": "",
      "hit": "",
      "counter_hit": "",
      "chip_damage": "",
      "guard_break": "",
      "notes": "",
      "index": ""
    },
    {
      "attack_command": "AR中4",
      "attack_name": "",
      "jp_name": "エアレイジ～LAR",
      "property": "(Special)",
      "damage": "-",
      "startup": "",
      "block": "",
      "hit": "",
      "counter_hit": "",
      "chip_damage": "",
      "guard_break": "",
      "notes": "",
      "index": ""
    },
    {
      "attack_command": "AR中A",
      "attack_name": "",
      "jp_name": "アーティファライ",
      "property": "L",
      "damage": "20",
      "startup": "32F",
      "block": "-2",
      "hit": "+14",
      "counter_hit": "STN",
      "chip_damage": "",
      "guard_break": "",
      "notes": "Ends i56, CS: , GC: 4%, KNB: 中 Ends FC カウンターでスタン、i18Fまで地上ヒット",
      "index": ""
    },
    {
      "attack_command": "AR中A:G",
      "attack_name": "",
      "jp_name": "アーティファライ（キャンセル）～エアレイジ",
      "property": "(Special)(Special)",
      "damage": "-",
      "startup": "",
      "block": "",
      "hit": "",
      "counter_hit": "",
      "chip_damage": "",
      "guard_break": "",
      "notes": "Ends i50",
      "index": ""
    },
    {
      "attack_command": "AR中B",
      "attack_name": "",
      "jp_name": "アルガ・パナイ(1)",
      "property": "M",
      "damage": "20",
      "startup": "20F",
      "block": "-20",
      "hit": "-6",
      "counter_hit": "-6",
      "chip_damage": "",
      "guard_break": "",
      "notes": "Ends i65, CS: -7F, GC: 9% KNB: 中",
      "index": ""
    },
    {
      "attack_command": "AR中Bヒット・ガード時B",
      "attack_name": "",
      "jp_name": "アルガ・パナイ",
      "property": "M, M",
      "damage": "20,62",
      "startup": "",
      "block": "-22",
      "hit": "KND",
      "counter_hit": "KND",
      "chip_damage": "",
      "guard_break": "",
      "notes": "Ends i(50), GC: 15% LHガードクラッシュで体勢を崩した相手にヒット, NC, Delayable 8F Hit confirm delayable 8F",
      "index": ""
    },
    {
      "attack_command": "AR中K",
      "attack_name": "",
      "jp_name": "トゥリードキック",
      "property": "MM",
      "damage": "14,16",
      "startup": "18F",
      "block": "-8s",
      "hit": "LNC",
      "counter_hit": "LNC",
      "chip_damage": "",
      "guard_break": "",
      "notes": "Ends i(33), JS: 21-44F, CS: -14F, GC: 4%, KNB: Weak,中",
      "index": ""
    },
    {
      "attack_command": "AR中A+B",
      "attack_name": "",
      "jp_name": "ロゥサレイト",
      "property": "M!",
      "damage": "60",
      "startup": "60F",
      "block": "KND",
      "hit": "KND",
      "counter_hit": "KND",
      "chip_damage": "",
      "guard_break": "",
      "notes": "UA, Ends i98, CS: 1-47F Gでキャンセル～Ends FC",
      "index": ""
    },
    {
      "attack_command": "A+G",
      "attack_name": "",
      "jp_name": "リーグフェイパー",
      "property": "(Throw)",
      "damage": "45",
      "startup": "18F",
      "block": "0",
      "hit": "",
      "counter_hit": "",
      "chip_damage": "",
      "guard_break": "",
      "notes": "Ends i54, KNB: Weak 4以外＋任意攻撃ボタンで投げ抜け 投げ抜け受付猶予22F 右側にリングアウト可",
      "index": ""
    },
    {
      "attack_command": "4A+G",
      "attack_name": "",
      "jp_name": "エンヴァース",
      "property": "(Throw)",
      "damage": "50",
      "startup": "18F",
      "block": "0",
      "hit": "",
      "counter_hit": "",
      "chip_damage": "",
      "guard_break": "",
      "notes": "KNB: Weak 4＋任意攻撃ボタンで投げ抜け 投げ抜け受付猶予22F",
      "index": ""
    },
    {
      "attack_command": "左側面投げ",
      "attack_name": "",
      "jp_name": "パラルラヴァー",
      "property": "(Throw)",
      "damage": "55",
      "startup": "18F",
      "block": "",
      "hit": "",
      "counter_hit": "",
      "chip_damage": "",
      "guard_break": "",
      "notes": "",
      "index": ""
    },
    {
      "attack_command": "右側面投げ",
      "attack_name": "",
      "jp_name": "ウォルスピーク",
      "property": "(Throw)",
      "damage": "60",
      "startup": "18F",
      "block": "",
      "hit": "",
      "counter_hit": "",
      "chip_damage": "",
      "guard_break": "",
      "notes": "背面側にRO possible",
      "index": ""
    },
    {
      "attack_command": "背面投げ",
      "attack_name": "",
      "jp_name": "ティンバークケース",
      "property": "(Throw)",
      "damage": "65",
      "startup": "18F",
      "block": "",
      "hit": "",
      "counter_hit": "",
      "chip_damage": "",
      "guard_break": "",
      "notes": "ヴォルド・アスタロス以外投げ抜け不可 右側にリングアウト or 壁ヒット可能",
      "index": ""
    },
    {
      "attack_command": "BT A+G",
      "attack_name": "",
      "jp_name": "ハミルウィッシュパイ",
      "property": "(Throw)",
      "damage": "55",
      "startup": "20F",
      "block": "+8",
      "hit": "",
      "counter_hit": "",
      "chip_damage": "",
      "guard_break": "",
      "notes": "Ends i56, KNB: Weak 4以外＋任意攻撃ボタンで投げ抜け",
      "index": ""
    },
    {
      "attack_command": "BT 4A+G",
      "attack_name": "",
      "jp_name": "マーレットファーディ(1)",
      "property": "(Throw)",
      "damage": "40",
      "startup": "20F",
      "block": "+8",
      "hit": "",
      "counter_hit": "",
      "chip_damage": "",
      "guard_break": "",
      "notes": "KNB: Weak 4＋任意攻撃ボタンで投げ抜け 正面にRO possible",
      "index": ""
    },
    {
      "attack_command": "BT 4A+G.46A",
      "attack_name": "",
      "jp_name": "マーレットファーディ",
      "property": "(Throw)",
      "damage": "40,35",
      "startup": "",
      "block": "",
      "hit": "",
      "counter_hit": "",
      "chip_damage": "",
      "guard_break": "",
      "notes": "投げ抜け可 旧アップデート (Ver.1.30)投げ抜けの受付時間をのばした。",
      "index": ""
    },
    {
      "attack_command": "AT中A+G",
      "attack_name": "",
      "jp_name": "ハイカカリン",
      "property": "(Throw)",
      "damage": "20",
      "startup": "17F",
      "block": "-",
      "hit": "+16",
      "counter_hit": "+16",
      "chip_damage": "",
      "guard_break": "",
      "notes": "Ends i66, KNB: Weak 投げ抜け不可 (Ver.1.40)一部の状況で相手に接触しづらくなることがあったため、前進量を増やし、ヒットサイズを拡大。",
      "index": ""
    },
    {
      "attack_command": "B+G",
      "attack_name": "",
      "jp_name": "ハルピキット",
      "property": "(RE)",
      "damage": "30",
      "startup": "48F",
      "block": "-12",
      "hit": "RE",
      "counter_hit": "RE",
      "chip_damage": "",
      "guard_break": "",
      "notes": "GC: 16%, KNB: Weak",
      "index": ""
    },
    {
      "attack_command": "[B+G]",
      "attack_name": "",
      "jp_name": "ハルピキット（ホールド）",
      "property": "(RE)",
      "damage": "40",
      "startup": "68F",
      "block": "RE",
      "hit": "RE",
      "counter_hit": "RE",
      "chip_damage": "",
      "guard_break": "",
      "notes": "BA, GC: 20%,",
      "index": ""
    },
    {
      "attack_command": "B+G:28",
      "attack_name": "",
      "jp_name": "ハルピキット（キャンセル）～AT",
      "property": "(Special)",
      "damage": "-",
      "startup": "",
      "block": "",
      "hit": "",
      "counter_hit": "",
      "chip_damage": "",
      "guard_break": "",
      "notes": "i27F以降可能（28Fからi）",
      "index": ""
    },
    {
      "attack_command": "B+G:6",
      "attack_name": "",
      "jp_name": "ハルピキット（キャンセル）～AS",
      "property": "(Special)",
      "damage": "-",
      "startup": "",
      "block": "",
      "hit": "",
      "counter_hit": "",
      "chip_damage": "",
      "guard_break": "",
      "notes": "i27F以降可能（28Fからi）",
      "index": ""
    },
    {
      "attack_command": "B+G:4",
      "attack_name": "",
      "jp_name": "ハルピキット（キャンセル）～LAR",
      "property": "(Special)",
      "damage": "-",
      "startup": "",
      "block": "",
      "hit": "",
      "counter_hit": "",
      "chip_damage": "",
      "guard_break": "",
      "notes": "i27F以降可能（28Fからi）",
      "index": ""
    },
    {
      "attack_command": "RE A",
      "attack_name": "",
      "jp_name": "ハレンシィーガー",
      "property": "H",
      "damage": "18",
      "startup": "",
      "block": "-4",
      "hit": "+6",
      "counter_hit": "+6",
      "chip_damage": "",
      "guard_break": "",
      "notes": "GC: 33%,",
      "index": ""
    },
    {
      "attack_command": "RE A.28",
      "attack_name": "",
      "jp_name": "ハレンシィーガー～AT",
      "property": "H(Special)",
      "damage": "-",
      "startup": "",
      "block": "+4",
      "hit": "+14",
      "counter_hit": "",
      "chip_damage": "",
      "guard_break": "",
      "notes": "",
      "index": ""
    },
    {
      "attack_command": "RE A.6",
      "attack_name": "",
      "jp_name": "ハレンシィーガー～AS",
      "property": "H(Special)",
      "damage": "-",
      "startup": "",
      "block": "+4",
      "hit": "+14",
      "counter_hit": "",
      "chip_damage": "",
      "guard_break": "",
      "notes": "",
      "index": ""
    },
    {
      "attack_command": "RE A.4",
      "attack_name": "",
      "jp_name": "ハレンシィーガー～LAR",
      "property": "H(Special)",
      "damage": "-",
      "startup": "",
      "block": "-10",
      "hit": "0",
      "counter_hit": "",
      "chip_damage": "",
      "guard_break": "",
      "notes": "",
      "index": ""
    },
    {
      "attack_command": "RE B",
      "attack_name": "",
      "jp_name": "タタクワン(1)～背向け",
      "property": "M(Special)",
      "damage": "18",
      "startup": "",
      "block": "",
      "hit": "+1",
      "counter_hit": "",
      "chip_damage": "",
      "guard_break": "",
      "notes": "BA, GC: 50%",
      "index": ""
    },
    {
      "attack_command": "RE B.B",
      "attack_name": "",
      "jp_name": "タタクワン",
      "property": "M, M",
      "damage": "18,14",
      "startup": "",
      "block": "",
      "hit": "LNC",
      "counter_hit": "LNC",
      "chip_damage": "",
      "guard_break": "",
      "notes": "背面方向に飛ばす",
      "index": ""
    },
    {
      "attack_command": "RE K",
      "attack_name": "",
      "jp_name": "テルカヤッド",
      "property": "M",
      "damage": "20",
      "startup": "",
      "block": "-4",
      "hit": "KND",
      "counter_hit": "KND",
      "chip_damage": "",
      "guard_break": "",
      "notes": "GC: 33%",
      "index": ""
    },
    {
      "attack_command": "RE 6",
      "attack_name": "",
      "jp_name": "前進～AR",
      "property": "(Special)",
      "damage": "-",
      "startup": "",
      "block": "",
      "hit": "",
      "counter_hit": "",
      "chip_damage": "",
      "guard_break": "",
      "notes": "",
      "index": ""
    },
    {
      "attack_command": "RE 28",
      "attack_name": "",
      "jp_name": "軸移動～AR",
      "property": "(Special)",
      "damage": "-",
      "startup": "",
      "block": "",
      "hit": "",
      "counter_hit": "",
      "chip_damage": "",
      "guard_break": "",
      "notes": "",
      "index": ""
    },
    {
      "attack_command": "RE 4",
      "attack_name": "",
      "jp_name": "後退～AR",
      "property": "(Special)",
      "damage": "-",
      "startup": "",
      "block": "",
      "hit": "",
      "counter_hit": "",
      "chip_damage": "",
      "guard_break": "",
      "notes": "",
      "index": ""
    }
  ]
}



